…
    # Live Task Sampling
    contestant_live_samples_df <- contestant_attempt_df %>% dplyr::filter(`Task Type` == "Live" ) %>% slice_sample(n = single_sample * num_live_tasks, replace = TRUE)
    
    contestant_episode_sample <- rbind(contestant_prize_samples_df, contestant_prerecord_samples_df, contestant_live_samples_df)
    
    contestant_episode_sample$`Episode ID` <- paste0("Sim ", sample_iter)
    
    episode_sample_df <- rbind(episode_sample_df, contestant_episode_sample)
}
}
episode_sample_df

## # A tibble: 25,000 × 7
##    `Series ID` `Episode ID` `Task ID` Task         `Task Type` Contestant Points
##          <dbl> <chr>            <dbl> <chr>        <chr>       <chr>       <dbl>
##  1          19 Sim 1                1 The snootie… Prize       Fatiha El…      1
##  2          19 Sim 1                2 Answer the … Pre-Record  Fatiha El…      3
##  3          19 Sim 1                3 Win the Pea… Pre-Record  Fatiha El…      3
##  4          19 Sim 1                4 Give Alex e… Pre-Record  Fatiha El…      5
##  5          19 Sim 1                5 Obey Greg’s… Live        Fatiha El…      1
##  6          19 Sim 1                1 The object … Prize       Jason Man…      5
##  7          19 Sim 1                2 Achieve a r… Pre-Record  Jason Man…      1
##  8          19 Sim 1                3 Win the Pea… Pre-Record  Jason Man…      5
##  9          19 Sim 1                4 Do somethin… Pre-Record  Jason Man…      3
## 10          19 Sim 1                5 Put one ite… Live        Jason Man…      3
## # ℹ 24,990 more rows

# Re rank points so that they are from 1-5
episode_sample_df  %>% mutate (`Observed Points Sample` = Points) %>%
    group_by(`Episode ID`, `Task ID`, `Task Type`) %>%
    mutate(Points = rank(`Observed Points Sample`, ties.method = "min")) %>%
    arrange(`Episode ID`, `Task ID`, `Contestant`)

## # A tibble: 25,000 × 8
## # Groups:   Episode ID, Task ID, Task Type [5,000]
##    `Series ID` `Episode ID` `Task ID` Task         `Task Type` Contestant Points
##          <dbl> <chr>            <dbl> <chr>        <chr>       <chr>       <int>
##  1          19 Sim 1                1 The snootie… Prize       Fatiha El…      1
##  2          19 Sim 1                1 The object … Prize       Jason Man…      5
##  3          19 Sim 1                1 The best th… Prize       Mathew Ba…      4
##  4          19 Sim 1                1 The snootie… Prize       Rosie Ram…      2
##  5          19 Sim 1                1 The object … Prize       Stevie Ma…      2
##  6          19 Sim 1                2 Answer the … Pre-Record  Fatiha El…      4
##  7          19 Sim 1                2 Achieve a r… Pre-Record  Jason Man…      1
##  8          19 Sim 1                2 Paint a pic… Pre-Record  Mathew Ba…      5
##  9          19 Sim 1                2 Do somethin… Pre-Record  Rosie Ram…      3
## 10          19 Sim 1                2 Give Alex e… Pre-Record  Stevie Ma…      1
## # ℹ 24,990 more rows
## # ℹ 1 more variable: `Observed Points Sample` <dbl>
…
## `summarise()` has grouped output by 'Series ID', 'Episode ID'. You can override
## using the `.groups` argument.

ggplot(episode_summary_df, aes(x= `Episode Rank`)) +
    geom_bar() + 
    facet_grid(Contestant~.)

<img src="{{< blogdown/postref >}}index_files/figure-html/unnamed-chunk-9-1.png" width="672" />

task_attempt_df %>% group_by("Contestant", "Task Type") %>% dplyr::filter(`Task Type` == "Prize" ) %>% slice_sample(n = 50, replace = TRUE)

## # A tibble: 50 × 9
## # Groups:   "Contestant", "Task Type" [1]
##    `Series ID` `Episode ID` `Task ID` Task         `Task Type` Contestant Points
##          <dbl>        <dbl>     <dbl> <chr>        <chr>       <chr>       <dbl>
##  1          19            3         1 The best th… Prize       Mathew Ba…      3
##  2          19            2         1 The snootie… Prize       Fatiha El…      1
##  3          19            1         1 The object … Prize       Fatiha El…      1
##  4          19            2         1 The snootie… Prize       Fatiha El…      1
##  5          19            1         1 The object … Prize       Fatiha El…      1
##  6          19            1         1 The object … Prize       Fatiha El…      1
##  7          19            2         1 The snootie… Prize       Stevie Ma…      4
##  8          19            1         1 The object … Prize       Jason Man…      5
##  9          19            1         1 The object … Prize       Stevie Ma…      2
## 10          19            2         1 The snootie… Prize       Stevie Ma…      4
## # ℹ 40 more rows
## # ℹ 2 more variables: `"Contestant"` <chr>, `"Task Type"` <chr>
